Agrega columnas con id geográficos asignados a poligonos de provincias o departamentos de Argentina (Augment Argentina's districts polygons id) — add_geo_codes • geoAr
…
codprov y coddepto son las codificaciones de las bases de datos de INDRA, empresa encargada por
muchos años de la tarea del escrutinio provisorio y utilizados en polAr.

    Examples

get_geo("ARGENTINA")

#> Simple feature collection with 526 features and 2 fields
#> geometry type:  MULTIPOLYGON
#> dimension:      XY
#> bbox:           xmin: -73.57219 ymin: -55.05744 xmax: -53.64222 ymax: -21.74506
#> geographic CRS: WGS 84
#> # A tibble: 526 x 3
#>    codprov_censo coddepto_censo                                         geometry
#>    <chr>         <chr>                                        <MULTIPOLYGON [°]>
#>  1 02            001            (((-58.37501 -34.57959, -58.36018 -34.5833, -58~
#>  2 02            002            (((-58.40084 -34.57126, -58.37015 -34.57725, -5~
#>  3 02            003            (((-58.39365 -34.60154, -58.39189 -34.62916, -5~
#>  4 02            004            (((-58.35695 -34.6198, -58.34056 -34.62002, -58~
#>  5 06            091            (((-58.01702 -34.7812, -58.14787 -34.88854, -58~
#>  6 74            056            (((-67.18339 -33.11857, -66.80601 -33.10576, -6~
#>  7 02            005            (((-58.41672 -34.59976, -58.41122 -34.63762, -5~
#>  8 02            006            (((-58.45919 -34.6064, -58.43405 -34.60458, -58~
#>  9 06            147            (((-61.53276 -35.38011, -61.28866 -35.57524, -6~
#> 10 02            007            (((-58.46017 -34.6158, -58.45229 -34.63255, -58~
#> # ... with 516 more rows
…
